{
  "status": 0,
  "msg": "成功",
  "data": {
    "current_page": 1,
    "data": [
      {
        "id": 145,
        "batch_id": 95,
        "activity_id": 0,
        "name": "习效样西音开",
        "coupon": "16",
        "uid": 10,
        "channel": "批量增发",
        "money": "0.00",
        "orderid": "",
        "status": "",
        "created_at": "2023-05-16 14:37:43",
        "updated_at": "2023-05-16 14:37:43",
        "start_at": "1985-10-06 04:10:45",
        "end_at": "1973-05-16 11:30:53",
        "used_at": null,
        "user_name": "",
        "brief": "满减100"
      }
    ],
    "first_page_url": "http://106.52.28.62:8986/sale/lptapp/coupon-activity-user-list?page=1",
    "from": 1,
    "last_page": 15,
    "last_page_url": "http://106.52.28.62:8986/sale/lptapp/coupon-activity-user-list?page=15",
    "next_page_url": "http://106.52.28.62:8986/sale/lptapp/coupon-activity-user-list?page=2",
    "path": "http://106.52.28.62:8986/sale/lptapp/coupon-activity-user-list",
    "per_page": 10,
    "prev_page_url": null,
    "to": 10,
    "total": 145
  }
}
